EDLD652 Lab 3
…
#Download the file here denoting the region and division of each state.
stregdiv <- import(here("data", "state_reg_div.xlsx")) %>% 
  clean_names() %>% 
  as_tibble()

#Join the file with your honey file.
p4_data <- hprod %>% 
  left_join(stregdiv, by = c("state" = "state_code")) %>% 
  rename(state_code = state, state = state.y)

p4_data %>% 
  group_by(state) %>% 
  summarize(avghoney= mean(totalprod))

## # A tibble: 44 x 2
##    state       avghoney
##    <chr>          <dbl>
##  1 Alabama      825467.
##  2 Arizona     2032267.
##  3 Arkansas    2810400 
##  4 California 23169000 
##  5 Colorado    1750600 
##  6 Florida    16469867.
##  7 Georgia     3299933.
##  8 Hawaii       843133.
##  9 Idaho       4410667.
## 10 Illinois     498333.
## # ... with 34 more rows
…
